[
  {
    "id" : "83a10ebb-9d01-47e1-ad53-018e42c202a0",
    "prId" : 15,
    "comments" : [
      {
        "id" : "c3b04d40-e072-464f-b5ff-6e48c04b4370",
        "parentId" : null,
        "author" : {
          "login" : "houz",
          "name" : "Tobias Ellinghaus",
          "avatarUrl" : "https://gitlab.com/uploads/-/system/user/avatar/1335453/avatar.png"
        },
        "body" : "You want to call `g_error_free(err);`",
        "createdAt" : "2017-06-16T09:37:55Z",
        "updatedAt" : "2017-06-16T11:19:56Z",
        "lastEditedBy" : {
          "login" : "houz",
          "name" : "Tobias Ellinghaus",
          "avatarUrl" : "https://gitlab.com/uploads/-/system/user/avatar/1335453/avatar.png"
        },
        "tags" : [
        ]
      }
    ],
    "commit" : "aa0f0c008d40e8f54390b0c19a26fb0aa2504d2d",
    "line" : 848,
    "diffHunk" : "@@ --1,-1 +848,1 @@         return;"
  },
  {
    "id" : "eb2d10d5-bfca-4dfb-912a-0cb8b401b85c",
    "prId" : 15,
    "comments" : [
      {
        "id" : "eb521385-12a2-4841-bb4a-cd2f4e594423",
        "parentId" : null,
        "author" : {
          "login" : "doctormo",
          "name" : "Martin Owens",
          "avatarUrl" : "https://gitlab.com/uploads/-/system/user/avatar/401528/avatar.png"
        },
        "body" : "Thanks Tobias. Both errs are now g_error_free. If err is not true, does that mean that there's no err to free and so it doesn't need calling?",
        "createdAt" : "2017-06-16T11:19:38Z",
        "updatedAt" : "2017-06-16T20:09:32Z",
        "lastEditedBy" : {
          "login" : "doctormo",
          "name" : "Martin Owens",
          "avatarUrl" : "https://gitlab.com/uploads/-/system/user/avatar/401528/avatar.png"
        },
        "tags" : [
        ]
      },
      {
        "id" : "14134f9d-082e-489e-8f2f-a84b13db0705",
        "parentId" : "eb521385-12a2-4841-bb4a-cd2f4e594423",
        "author" : {
          "login" : "houz",
          "name" : "Tobias Ellinghaus",
          "avatarUrl" : "https://gitlab.com/uploads/-/system/user/avatar/1335453/avatar.png"
        },
        "body" : "Again, you are leaking `err`.",
        "createdAt" : "2017-06-16T09:41:25Z",
        "updatedAt" : "2017-06-16T11:19:52Z",
        "lastEditedBy" : {
          "login" : "houz",
          "name" : "Tobias Ellinghaus",
          "avatarUrl" : "https://gitlab.com/uploads/-/system/user/avatar/1335453/avatar.png"
        },
        "tags" : [
        ]
      }
    ],
    "commit" : "aa0f0c008d40e8f54390b0c19a26fb0aa2504d2d",
    "line" : 992,
    "diffHunk" : "@@ --1,-1 +992,1 @@       return;"
  }
]